{
  "C:\\Program Files\\Java\\jre8\\lib\\rt.jar": {
    "coordinate": "jre:jre:zip:call:1.0.0",
    "location": "C:\\Program Files\\Java\\jre8\\lib\\rt.jar",
    "status": "RESOLVED"
  },
  "C:\\Users\\cs463001_07\\.m2\\repository\\org\\eclipse\\swt\\org.eclipse.swt.win32.win32.x86_64\\4.3\\org.eclipse.swt.win32.win32.x86_64-4.3.jar": {
    "location": "C:\\Users\\cs463001_07\\.m2\\repository\\org\\eclipse\\swt\\org.eclipse.swt.win32.win32.x86_64\\4.3\\org.eclipse.swt.win32.win32.x86_64-4.3.jar",
    "status": "UNRESOLVED",
    "error": "No call model found for \u0027C:\\Users\\cs463001_07\\.m2\\repository\\org\\eclipse\\swt\\org.eclipse.swt.win32.win32.x86_64\\4.3\\org.eclipse.swt.win32.win32.x86_64-4.3.jar\u0027. Neither fingerprint \u002794fc38c538f9bf264d6a9078c711f122f79acd63\u0027 nor symbolic name \u0027org.eclipse.swt.win32.win32.x86_64-4.3\u0027 are known."
  },
  "E:\\CWU\\CS\\CS 463\\Group Project\\Bug Zapper\\foreignobject-bug-squasher-a44985e99246\\src\\main\\java": {
    "location": "E:\\CWU\\CS\\CS 463\\Group Project\\Bug Zapper\\foreignobject-bug-squasher-a44985e99246\\src\\main\\java",
    "status": "UNRESOLVED",
    "error": "No class path info available for \u0027E:\\CWU\\CS\\CS 463\\Group Project\\Bug Zapper\\foreignobject-bug-squasher-a44985e99246\\src\\main\\java\u0027. Skipped."
  }
}