<?xml version="1.0" encoding="UTF-8"?>
<session version="1.0">
<refactoring comment="Rename local variable &apos;widget&apos; in &apos;bugZapper.BugZapper.createContents(...)&apos; to &apos;pathTile&apos;&#x0D;&#x0A;- Original project: &apos;foreignobject-bug-squasher-a44985e99246&apos;&#x0D;&#x0A;- Original element: &apos;bugZapper.BugZapper.createContents(Composite).widget&apos;&#x0D;&#x0A;- Renamed element: &apos;widget&apos;&#x0D;&#x0A;- Update references to refactored element" description="Rename local variable &apos;widget&apos;" id="org.eclipse.jdt.ui.rename.local.variable" input="/src\/main\/java&lt;bugZapper{BugZapper.java[BugZapper~createContents~QComposite;@widget!6013!6091!6024!6029!QZapperTile;!0!false" name="pathTile" references="true" stamp="1401901325719" version="1.0"/>
</session>